期末資料探索
…
第2群顧客奇怪的是購買商品數量較雜 購買商品種類繁多，但是都沒有一定的趨勢

mix %>% filter(cut2_4_7==2) %>% group_by(prod) %>% summarise(n = n()) %>% arrange(desc(n))

## # A tibble: 1,337 x 2
##    prod              n
##    <chr>         <int>
##  1 4711080010112     7
##  2 4710085120628     6
##  3 4710085120703     6
##  4 4712425010255     6
##  5 4710011401128     5
##  6 4710043552102     5
##  7 4710085120710     5
##  8 4710088410610     5
##  9 4714981010038     5
## 10 4902430041287     5
## # … with 1,327 more rows
…
