期末資料探索
…
第2群顧客奇怪的是購買商品數量較雜 購買商品種類繁多，但是都沒有一定的趨勢

mix %>% filter(cut2_4_7==2) %>% group_by(prod) %>% summarise(n = n()) %>% arrange(desc(n))

## # A tibble: 9,586 x 2
##    prod              n
##    <chr>         <int>
##  1 4714981010038   521
##  2 4711856000125   161
##  3 4710036003581   156
##  4 4710908110232   145
##  5 4710363352000   128
##  6 4710265849066   127
##  7 4710114128038   125
##  8 0037000329206   110
##  9 0037000440147   108
## 10 4710114362029   106
## # … with 9,576 more rows
…
A_often_come = group_by(mix,cust,weeks) %>% 
  summarise(
    count = n(),
    label = keams[1]
  ) %>% group_by(cust) %>% top_n(1,wt = count)

table(A_often_come$weeks,A_often_come$label) %>% as.data.frame.matrix() %>% d3heatmap::d3heatmap(colors = "Greens")

2001-01-21除夕的前一天，那天的購買次數是這４個月最高的

X %>% group_by(date) %>% summarise(
  count = n()
) %>% arrange(desc(count)) 

## # A tibble: 120 x 2
##    date       count
##    <date>     <int>
##  1 2001-01-22  2225
##  2 2001-01-21  2070
##  3 2000-11-26  1780
##  4 2000-11-25  1704
##  5 2000-11-12  1651
##  6 2000-12-17  1643
##  7 2001-01-14  1635
##  8 2000-12-31  1631
##  9 2000-11-05  1580
## 10 2001-01-20  1579
## # … with 110 more rows

temp3 = Z %>% group_by(prod) %>% summarise(s = sum(qty))
arrange(temp3, s)

## # A tibble: 23,789 x 2
##    prod              s
##    <chr>         <dbl>
##  1 0002884011363     1
##  2 0011797210039     1
##  3 0015000761707     1
##  4 0026333006366     1
##  5 0026333006380     1
##  6 0026333006397     1
##  7 0026333007905     1
##  8 0028851030137     1
##  9 0034223097165     1
## 10 0035496001323     1
## # … with 23,779 more rows
…
